{
    "key": "group_5db77481af6fd",
    "title": "Post - Gallery",
    "fields": [
        {
            "key": "field_5db7749189901",
            "label": "Gallery",
            "name": "gallery",
            "type": "gallery",
            "instructions": "",
            "required": 0,
            "conditional_logic": 0,
            "wrapper": {
                "width": "",
                "class": "",
                "id": ""
            },
            "return_format": "id",
            "preview_size": "slider-sml",
            "insert": "append",
            "library": "all",
            "min": "",
            "max": "",
            "min_width": "",
            "min_height": "",
            "min_size": "",
            "max_width": "",
            "max_height": "",
            "max_size": "",
            "mime_types": ""
        }
    ],
    "location": [
        [
            {
                "param": "post_category",
                "operator": "==",
                "value": "category:to-do"
            }
        ],
        [
            {
                "param": "post_category",
                "operator": "==",
                "value": "category:to-see"
            }
        ],
        [
            {
                "param": "post_category",
                "operator": "==",
                "value": "category:we-love"
            }
        ]
    ],
    "menu_order": 0,
    "position": "normal",
    "style": "default",
    "label_placement": "top",
    "instruction_placement": "label",
    "hide_on_screen": "",
    "active": 1,
    "description": "",
    "modified": 1572304050
}