<svg version="1.1" id="bg"
  xmlns="http://www.w3.org/2000/svg"
  xmlns:xlink="http://www.w3.org/1999/xlink" viewBox="0 0 1000 600">
  <g>
    <polygon class="ll" fill="#6D7377" points="250,450 250,150 0,298.854 	"/>
    <polygon class="lr" fill="#2B3237" points="250,450 250,150 500,298.854 	"/>
  </g>
  <g>
    <polygon class="tl" fill="#F2F2F2" points="500,300 500,0 250,148.854 		"/>
    <polygon class="tr" fill="#FFFFFF" points="500,300 500,0 750,148.854 		"/>
  </g>
  <g>
    <polygon class="rr" fill="#D3D4D5" points="750,450 750,150 1000,298.854 	"/>
    <polygon class="rl" fill="#A7A9AC" points="750,450 750,150 500,298.854 	"/>
  </g>
  <g>
    <polygon class="bl" fill="#DECDB5" points="500,600 500,300 750,448.854 		"/>
    <polygon class="br" fill="#BC9B6A" points="500,600 500,300 250,448.854 		"/>
  </g>

</svg>
